{
    "age": [
        "old",
        "young",
        "child",
        "teen",
        "preteen",
        "toddler",
        "baby",
        "adult",
        "dead",
        "skeleton",
        "not born yet",
        "dusty",
        "ancient",
        "middle age",
        "midlife crisis",
        "crusty",
        "elder"
    ],
    "race": [
        "white",
        "black",
        "asian",
        "brown",
        "alien"
    ],
    "adjective": [
        "pretty",
        "ugly",
        "wise",
        "stupid",
        "hidious",
        "repulsive",
        "attractive",
        "sexy",
        "disgusting",
        "handsome",
        "clever",
        "intelligent",
        "dumb",
        "unattractive",
        "ridiculous",
        "poor",
        "rich",
        "skinny",
        "fat",
        "adorable",
        "adventurous",
        "aggressive",
        "agreeable",
        "amused",
        "angry",
        "annoyed",
        "arrogant",
        "avarage",
        "awful",
        "bad",
        "beautiful",
        "bloody",
        "bored",
        "brave",
        "breakable",
        "busy",
        "calm",
        "careful",
        "cautious",
        "charming",
        "cheerful",
        "clean",
        "clumsy",
        "comfortable",
        "colorful",
        "confused",
        "combative",
        "concerned",
        "condemned",
        "cooperative",
        "courageous",
        "crazy",
        "creepy",
        "cruel",
        "curious",
        "cute",
        "cocky",
        "dangerous",
        "defeated",
        "defiant",
        "delightful",
        "depressed",
        "determined",
        "different",
        "difficult",
        "disgusted",
        "disturbed",
        "dizzy",
        "doubtful",
        "dull",
        "eager",
        "easy",
        "elated",
        "elegant",
        "embarrassed",
        "enchanting",
        "energetic",
        "enthusiastic",
        "envious",
        "evil",
        "excited",
        "expensive",
        "famous",
        "fancy",
        "fantastic",
        "fierce",
        "filthy",
        "fine",
        "foolish",
        "frail",
        "frantic",
        "friendly",
        "frightened",
        "funny",
        "gentle",
        "gifted",
        "glamorous",
        "gleaming",
        "glorious",
        "good",
        "gorgeous",
        "graceful",
        "grieving",
        "grotesque",
        "grumpy",
        "handsome",
        "happy",
        "healthy",
        "helpful",
        "helpless",
        "hilarious",
        "hot",
        "homeless",
        "homely",
        "horrible",
        "hungry",
        "hurt",
        "ill",
        "important",
        "impossible",
        "innocent",
        "inquisitive",
        "itchy",
        "jealous",
        "jittery",
        "jolly",
        "joyous",
        "kind",
        "lazy",
        "lively",
        "lonely",
        "lovely",
        "lucky",
        "magnificent",
        "motionless",
        "mysterious",
        "nasty",
        "naughty",
        "nervous",
        "nice",
        "obedient",
        "obnoxious",
        "odd",
        "old-fashioned",
        "outrageous",
        "outstanding",
        "perfect",
        "plain",
        "pleasant",
        "powerful",
        "precious",
        "prickly",
        "proud",
        "puzzled",
        "relieved",
        "scary",
        "selfish",
        "shy",
        "silly",
        "sleepy",
        "smiling",
        "splendid",
        "spotless",
        "stupid",
        "strange",
        "successful",
        "talented",
        "tense",
        "terrible",
        "thoughtful",
        "thoughtless",
        "tired",
        "tough",
        "troubled",
        "uninterested",
        "unsightly",
        "unusual",
        "upset",
        "uptight",
        "vast",
        "victorious",
        "wandering",
        "weary",
        "wicked",
        "wild",
        "witty",
        "worried"
    ],
    "gender": [
        "male",
        "female",
        "npc"
    ]
}
